{
    "$schema": "http://json-schema.org/draft-04/schema",
    "title": "JSON Schema for front-end list views",
    "type": "object",
    "properties": {
        "list": {
            "type": "object",
            "description": "List view in eye-share",
            "properties": {
                "base": {
                    "type": "object",
                    "description": "Applies to all list views",
                    "properties": {
                        "columns": {
                            "type": "object",
                            "description": "The vertical columns in that are shown in the list view",
                            "properties": {
                                "catalog": {
                                    "type": "object",
                                    "$ref": "definitions.json#/definitions/catalogDescription",
                                    "patternProperties": {
                                        "^[A-Za-z_][A-Za-z0-9_]*$": {
                                            "type": "object",
                                            "properties": {
                                                "modelMap": {
                                                    "$ref": "definitions.json#/definitions/modelmapDescription"
                                                },
                                                "width": {"type": "number", "description": "Default width of the field"},
                                                "type": {
                                                    "type": "string",
                                                    "description": "'date' for date fields\n'money' for any numeric field with decimals\n'icon' for icon columns(need class as well)",
                                                    "enum": ["date", "money", "icon", "tags"]
                                                }
                                            }
                                        }
                                    }
                                },
                                "use": {
                                    "$ref": "definitions.json#/definitions/useDefinition"
                                }
                            }
                        },
                        "menu": {
                            "description": "Config for view menu items",
                            "properties": {
                                "catalog": {
                                    "type": "object",
                                    "$ref": "definitions.json#/definitions/catalogDescription",
                                    "patternProperties": {
                                        "^[A-Za-z_][A-Za-z0-9_]*$": {
                                            "type": "object",
                                            "properties": {
                                                "action": {
                                                    "title": "Menu button action",
                                                    "type": "string",
                                                    "examples": ["showNewDialog()", "createOrders()", "loadDocumentThen('showCreateRevisionDialog()')"],
                                                    "description": "Javascript to execute, typically method available on $scope"},
                                                "disabled": {"type": "string", "description": "Expression - if evaluated to true, the menu item is disabled", "examples": ["!hasCreate || isNew || hasChanges()"]},
                                                "iconClass": {"type": "string", "description": "CSS class for the button. \nSample: es-ico-icon-button-add large-icon"},
                                                "dropDownMenu": {"type": "object", "description": "Adds a sub menu. Sub menu items are defined in a 'items' property"}
                                            },
                                            "if": {
                                                "properties": { "type": { "const": "dropDownMenu" } }
                                            },
                                            "then": {
                                                "properties": { "action2-testing-if-statements": {"type": "string", "description": "List of subitems"} }
                                            }
                                        }
                                    }
                                },
                                "use": {
                                    "$ref": "definitions.json#/definitions/useDefinition"
                                }
                            }
                        },
                        "maxCount": {
                            "type": "integer",
                            "default": 5000,
                            "description": "Max number of documents to include in an Excel export of a given view"
                        },
                        "excelExport":{
                            "type":"object",
                            "description": "Excel export config"
                        }
                    }
                }
            }
        }
    }
}