{
   "$schema": "http://json-schema.org/draft-04/schema",
   "title": "JSON Schema for config.sys authentication properties.",
   "type": "object",
   "properties": {
      "authentication": {
         "type": "object",
         "description": "Application authentication methods and options",
         "properties": {
            "ws-address": {
               "type": "string",
               "description": "Authority server URI address:'ws-address' (should be https for production environments)",
               "default": "http://localhost:60666/auth"
            },
            "allow-all-origins": {
               "type": "boolean",
               "description": "https://developer.mozilla.org/en-US/docs/Web/HTTP/Headers/Access-Control-Allow-Origin",
               "default": true
            },
            "authuser-cleanup-timeout": {
               "type": "integer",
               "description": "Timeout in hours to cleanup unregistered auth users. 0 to disable",
               "default": 48
            },
            "providers": {
               "type": "object",
               "description": "External providers: 'providers' (Options: google, facebook, microsoft, windows)\nNotes: Microsoft live connect cannot be used on localhost, it requires a redirectURI different from localhost. \nWith only one provider, the provider selection dialog is skipped when signing in.",
               "additionalProperties": false,
               "$ref": "#/definitions/providers"
            }
         }
      }
   },
   "definitions": {
      "providers": {
         "type": "object",
         "properties": {
            "windows": {
               "description": "enables authentication through windows login",
               "$ref": "#/definitions/provider"
            },
            "microsoft": {
               "description": "enables authentication through microsoft email  login",
               "$ref": "#/definitions/provider"
            },
            "google": {
               "description": "enables authentication through google email",
               "$ref": "#/definitions/providerClientIdAndSecret"
            },
            "facebook": {
               "description": "enables authentication through facebook login",
               "$ref": "#/definitions/providerClientIdAndSecret"
            },
            "adfs": {
               "$ref": "#/definitions/providerWS"
            },
            "support": {
               "$ref": "#/definitions/providerWS"
            },
            "supportexternal": {
               "$ref": "#/definitions/providerWS"
            }
         }
      },
      "provider": {
         "type": "object",
         "additionalProperties": false,
         "required": [
            "enabled"
         ],
         "properties": {
            "enabled": {
               "type": "boolean"
            }
         }
      },
      "providerClientIdAndSecret": {
         "type": "object",
         "additionalProperties": false,
         "required": [
            "enabled"
         ],
         "properties": {
            "enabled": {
               "type": "boolean"
            },
            "clientId": {
               "type": "string"
            },
            "clientSecret": {
               "type": "string"
            }
         }
      },
      "providerWS": {
         "type": "object",
         "additionalProperties": false,
         "required": [
            "enabled"
         ],
         "properties": {
            "enabled": {
               "type": "boolean"
            },
            "ws-address": {
               "type": "string"
            },
            "ws-realm": {
               "type": "string"
            },
            "ws-reply": {
               "type": "string"
            }
         }
      }
   }
}